{"limit":30,"totalCount":29828,"totalPages":995,"nextPage":2,"page":1,"items":[{"_id":"68890b48ab5ce3bae216c7a4","osmId":"5996104087","__v":0,"country":"DE","createdAt":"2025-07-29T17:56:24.584Z","createdBy":"openaip-system","elevation":{"value":305,"unit":0,"referenceDatum":1},"elevationGeoid":{"geoidHeight":45,"hae":350},"geometry":{"type":"Point","coordinates":[12.0633445,50.9341195]},"height":{"value":100,"unit":0,"referenceDatum":0},"name":"#784930","osmImportJobId":"567e3138-4fb3-446c-959c-b920e748ecf6","osmTags":{"key":"generator:method","value":"wind_turbine","generator:output:electricity":"2300 kW","generator:source":"wind","generator:type":"horizontal_axis","height":"100","manufacturer":"Enercon","name":"#784930","operator":"MDP Group","power":"generator","start_date":"20.01.2017"},"osmUpdatedAt":"2026-06-01T08:15:20.605Z","type":0,"updatedAt":"2026-06-01T08:15:20.605Z","updatedBy":"openaip-system"},{"_id":"68890b52ab5ce3bae216c973","osmId":"1351672785","__v":0,"country":"DE","createdAt":"2025-07-29T17:56:34.230Z","createdBy":"openaip-system","elevation":{"value":82,"unit":0,"referenceDatum":1},"elevationGeoid":{"geoidHeight":43,"hae":125},"geometry":{"type":"Point","coordinates":[10.9498372,52.0814125]},"height":{"value":149,"unit":0,"referenceDatum":0},"name":"#823612","osmImportJobId":"567e3138-4fb3-446c-959c-b920e748ecf6","osmTags":{"key":"generator:method","value":"wind_turbine","generator:output:electricity":"2300 kW","generator:source":"wind","generator:type":"horizontal_axis","height":"149","manufacturer":"Enercon","name":"#823612","operator":"Landwind","power":"generator","start_date":"11.08.2011"},"osmUpdatedAt":"2026-06-01T08:15:17.083Z","type":0,"updatedAt":"2026-06-01T08:15:17.083Z","updatedBy":"openaip-system"},{"_id":"68890b52ab5ce3bae216c97a","osmId":"2214677000","__v":0,"country":"DE","createdAt":"2025-07-29T17:56:34.601Z","createdBy":"openaip-system","elevation":{"value":84,"unit":0,"referenceDatum":1},"elevationGeoid":{"geoidHeight":43,"hae":127},"geometry":{"type":"Point","coordinates":[10.9599398,52.0750375]},"height":{"value":149,"unit":0,"referenceDatum":0},"name":"#823613","osmImportJobId":"567e3138-4fb3-446c-959c-b920e748ecf6","osmTags":{"key":"generator:method","value":"wind_turbine","generator:output:electricity":"2300 kW","generator:source":"wind","generator:type":"horizontal_axis","height":"149","manufacturer":"Enercon","name":"#823613","operator":"Landwind","power":"generator"},"osmUpdatedAt":"2026-06-01T08:15:15.864Z","type":0,"updatedAt":"2026-06-01T08:15:15.864Z","updatedBy":"openaip-system"},{"_id":"69cc697522e22702d37568ab","osmId":"294578484","__v":0,"country":"DE","createdAt":"2026-04-01T00:40:21.895Z","createdBy":"openaip-system","elevation":{"value":41,"unit":0,"referenceDatum":1},"elevationGeoid":{"geoidHeight":45,"hae":86},"geometry":{"type":"Point","coordinates":[7.4697518,51.7213974]},"name":"001","osmImportJobId":"567e3138-4fb3-446c-959c-b920e748ecf6","osmTags":{"key":"generator:source","value":"wind","name":"001","power":"generator"},"osmUpdatedAt":"2026-06-01T02:32:24.502Z","type":0,"updatedAt":"2026-06-01T02:32:24.502Z","updatedBy":"openaip-system"},{"_id":"69cc697522e22702d37568a8","osmId":"294578479","__v":0,"country":"DE","createdAt":"2026-04-01T00:40:21.863Z","createdBy":"openaip-system","elevation":{"value":43,"unit":0,"referenceDatum":1},"elevationGeoid":{"geoidHeight":45,"hae":88},"geometry":{"type":"Point","coordinates":[7.4676193,51.7254884]},"name":"003","osmImportJobId":"567e3138-4fb3-446c-959c-b920e748ecf6","osmTags":{"key":"generator:source","value":"wind","name":"003","power":"generator"},"osmUpdatedAt":"2026-06-01T02:32:25.001Z","type":0,"updatedAt":"2026-06-01T02:32:25.001Z","updatedBy":"openaip-system"},{"_id":"688922dab867fae9e04b5e0e","osmId":"294578482","__v":0,"country":"DE","createdAt":"2025-07-29T19:36:58.486Z","createdBy":"openaip-system","elevation":{"value":48,"unit":0,"referenceDatum":1},"elevationGeoid":{"geoidHeight":45,"hae":93},"geometry":{"type":"Point","coordinates":[7.4733801,51.7247976]},"name":"004","osmImportJobId":"567e3138-4fb3-446c-959c-b920e748ecf6","osmTags":{"key":"generator:source","value":"wind","name":"004","power":"generator"},"osmUpdatedAt":"2026-06-01T13:41:44.923Z","type":0,"updatedAt":"2026-06-01T13:41:44.923Z","updatedBy":"openaip-system"},{"_id":"69ccb3132a8350d34a2859f8","osmId":"1247751316","__v":0,"country":"DE","createdAt":"2026-04-01T05:54:27.219Z","createdBy":"openaip-system","elevation":{"value":477,"unit":0,"referenceDatum":1},"elevationGeoid":{"geoidHeight":46,"hae":523},"geometry":{"type":"Point","coordinates":[10.2901748,51.2412464]},"name":"01317-002","osmImportJobId":"567e3138-4fb3-446c-959c-b920e748ecf6","osmTags":{"key":"frequency","value":"50","generator:method":"wind_turbine","generator:output:electricity":"1.8 MW","generator:source":"wind","manufacturer":"Enercon","manufacturer:type":"E-66/18.70","name":"01317-002","power":"generator","ref":"01317-002","ref:EEG":"E4183201RS505856640000630904000??","rotor:diameter":"70","start_date":"2009","windpark":"Windpark Büttstedt"},"osmUpdatedAt":"2026-06-01T02:47:49.773Z","type":3,"updatedAt":"2026-06-01T02:47:49.773Z","updatedBy":"openaip-system"},{"_id":"69ccb3022a8350d34a28584d","osmId":"1325598581","__v":0,"country":"DE","createdAt":"2026-04-01T05:54:10.796Z","createdBy":"openaip-system","elevation":{"value":463,"unit":0,"referenceDatum":1},"elevationGeoid":{"geoidHeight":46,"hae":509},"geometry":{"type":"Point","coordinates":[10.2958264,51.2413389]},"name":"01317-017","osmImportJobId":"567e3138-4fb3-446c-959c-b920e748ecf6","osmTags":{"key":"frequency","value":"50","generator:method":"wind_turbine","generator:output:electricity":"1.8 MW","generator:source":"wind","manufacturer":"Enercon","manufacturer:type":"E-66/18.70","name":"01317-017","power":"generator","ref":"01317-017","ref:EEG":"E4183201RS505856640000630904000??","rotor:diameter":"70","start_date":"2009","windpark":"Windpark Büttstedt"},"osmUpdatedAt":"2026-06-01T02:47:49.687Z","type":3,"updatedAt":"2026-06-01T02:47:49.687Z","updatedBy":"openaip-system"},{"_id":"68895e7b8096bfd691261ab8","osmId":"2365999841","__v":0,"country":"DE","createdAt":"2025-07-29T23:51:23.701Z","createdBy":"openaip-system","elevation":{"value":19,"unit":0,"referenceDatum":1},"elevationGeoid":{"geoidHeight":42,"hae":61},"geometry":{"type":"Point","coordinates":[9.5509476,52.6446181]},"name":"01WEA1010136","osmImportJobId":"567e3138-4fb3-446c-959c-b920e748ecf6","osmTags":{"key":"designation","value":"01WEA1010136","generator:method":"wind_turbine","generator:source":"wind","generator:type":"horizontal_axis","name":"01WEA1010136","power":"generator"},"osmUpdatedAt":"2026-06-01T00:20:51.027Z","type":3,"updatedAt":"2026-06-01T00:20:51.027Z","updatedBy":"openaip-system"},{"_id":"69ccc6f42a8350d34a29d77a","osmId":"272114180","__v":0,"country":"DE","createdAt":"2026-04-01T07:19:16.602Z","createdBy":"openaip-system","elevation":{"value":22,"unit":0,"referenceDatum":1},"elevationGeoid":{"geoidHeight":42,"hae":64},"geometry":{"type":"Point","coordinates":[9.5027622,52.5816139]},"name":"01WEA1010193","osmImportJobId":"567e3138-4fb3-446c-959c-b920e748ecf6","osmTags":{"key":"designation","value":"E-101","generator:output:electricity":"4.5 MW","generator:source":"wind","name":"01WEA1010193","operator":"DeanBV","power":"generator","ref":"E-1010193"},"osmUpdatedAt":"2026-06-01T03:45:40.266Z","type":0,"updatedAt":"2026-06-01T03:45:40.266Z","updatedBy":"openaip-system"},{"_id":"6888ac22379c7f1f1acfb1b5","osmId":"272113784","__v":0,"country":"DE","createdAt":"2025-07-29T11:10:26.541Z","createdBy":"openaip-system","elevation":{"value":48,"unit":0,"referenceDatum":1},"elevationGeoid":{"geoidHeight":42,"hae":90},"geometry":{"type":"Point","coordinates":[9.4958917,52.5991264]},"name":"01WEA1033","osmImportJobId":"567e3138-4fb3-446c-959c-b920e748ecf6","osmTags":{"key":"designation","value":"N-60","generator:output:electricity":"1.3 MW","generator:source":"wind","name":"01WEA1033","note":"WEA NX-1033 1300 kW","power":"generator","ref":"NX-1033"},"osmUpdatedAt":"2026-06-01T05:46:17.040Z","type":0,"updatedAt":"2026-06-01T05:46:17.040Z","updatedBy":"openaip-system"},{"_id":"68897168ab5ce3bae21bb595","osmId":"1015070491","__v":0,"country":"DE","createdAt":"2025-07-30T01:12:08.814Z","createdBy":"openaip-system","elevation":{"value":406,"unit":0,"referenceDatum":1},"elevationGeoid":{"geoidHeight":48,"hae":454},"geometry":{"type":"Point","coordinates":[6.6990676,49.7081536]},"name":"01WEA1285","osmImportJobId":"567e3138-4fb3-446c-959c-b920e748ecf6","osmTags":{"key":"designation","value":"N-62","generator:method":"wind_turbine","generator:source":"wind","generator:type":"horizontal_axis","name":"01WEA1285","power":"generator"},"osmUpdatedAt":"2026-06-01T07:28:35.606Z","type":3,"updatedAt":"2026-06-01T07:28:35.606Z","updatedBy":"openaip-system"},{"_id":"688985276f79326825d7904e","osmId":"272114093","__v":0,"country":"DE","createdAt":"2025-07-30T02:36:23.474Z","createdBy":"openaip-system","elevation":{"value":82,"unit":0,"referenceDatum":1},"elevationGeoid":{"geoidHeight":41,"hae":123},"geometry":{"type":"Point","coordinates":[10.788469,52.7108727]},"name":"01WEA1433","osmImportJobId":"567e3138-4fb3-446c-959c-b920e748ecf6","osmTags":{"key":"designation","value":"N62","generator:method":"wind_turbine","generator:output:electricity":"1.3 MW","generator:source":"wind","generator:type":"horizontal_axis","manufacturer":"Nordex","manufacturer:type":"N62","name":"01WEA1433","note":"WEA NX-1433 1300 kW","power":"generator","ref":"NX-1433"},"osmUpdatedAt":"2026-06-01T15:00:54.143Z","type":3,"updatedAt":"2026-06-01T15:00:54.143Z","updatedBy":"openaip-system"},{"_id":"688937e5da4d0b16f908cafb","osmId":"257032454","__v":0,"country":"DE","createdAt":"2025-07-29T21:06:45.163Z","createdBy":"openaip-system","elevation":{"value":59,"unit":0,"referenceDatum":1},"elevationGeoid":{"geoidHeight":43,"hae":102},"geometry":{"type":"Point","coordinates":[9.6737276,52.2805857]},"name":"01WEA14503","osmImportJobId":"567e3138-4fb3-446c-959c-b920e748ecf6","osmTags":{"key":"description","value":"Vestas V47Inbetriebnahme 2001","designation":"V-47","generator:output:electricity":"660 kW","generator:source":"wind","generator:type":"horizontal_axis","name":"01WEA14503","operator":"deanHG","power":"generator","ref":"V-14503"},"osmUpdatedAt":"2026-06-01T06:37:54.329Z","type":0,"updatedAt":"2026-06-01T06:37:54.329Z","updatedBy":"openaip-system"},{"_id":"68b516206094274d6f359493","osmId":"272116061","__v":0,"country":"DE","createdAt":"2025-09-01T03:42:24.813Z","createdBy":"openaip-system","elevation":{"value":65,"unit":0,"referenceDatum":1},"elevationGeoid":{"geoidHeight":41,"hae":106},"geometry":{"type":"Point","coordinates":[10.2676159,52.65836]},"height":{"value":115,"unit":0,"referenceDatum":0},"name":"01WEA15941","osmImportJobId":"567e3138-4fb3-446c-959c-b920e748ecf6","osmTags":{"key":"generator:method","value":"wind_turbine","generator:output:electricity":"3 MW","generator:source":"wind","generator:type":"horizontal_axis","height":"115","manufacturer":"Siemens","manufacturer:type":"SWT-3.0-113","name":"01WEA15941","power":"generator"},"osmUpdatedAt":"2026-06-01T14:12:18.095Z","type":0,"updatedAt":"2026-06-01T14:12:18.095Z","updatedBy":"openaip-system"},{"_id":"68b59931d1707d5624dd7966","osmId":"981696792","__v":0,"country":"DE","createdAt":"2025-09-01T13:01:37.765Z","createdBy":"openaip-system","elevation":{"value":248,"unit":0,"referenceDatum":1},"elevationGeoid":{"geoidHeight":45,"hae":293},"geometry":{"type":"Point","coordinates":[8.8148268,51.6794375]},"height":{"value":64,"unit":0,"referenceDatum":0},"name":"01WEA17249","osmImportJobId":"567e3138-4fb3-446c-959c-b920e748ecf6","osmTags":{"key":"generator:method","value":"wind_turbine","generator:output:electricity":"1.5 MW","generator:source":"wind","generator:type":"horizontal_axis","height":"64","manufacturer":"NEG Micon","manufacturer:type":"NM 72C/1500","name":"01WEA17249","power":"generator","ref":"V 67249","rotor:diameter":"72"},"osmUpdatedAt":"2026-06-01T06:43:19.383Z","type":0,"updatedAt":"2026-06-01T06:43:19.383Z","updatedBy":"openaip-system"},{"_id":"68b5161d6094274d6f35941b","osmId":"1578622263","__v":0,"country":"DE","createdAt":"2025-09-01T03:42:21.400Z","createdBy":"openaip-system","elevation":{"value":66,"unit":0,"referenceDatum":1},"elevationGeoid":{"geoidHeight":41,"hae":107},"geometry":{"type":"Point","coordinates":[10.267134,52.6784164]},"height":{"value":78,"unit":0,"referenceDatum":0},"name":"01WEA19625","osmImportJobId":"567e3138-4fb3-446c-959c-b920e748ecf6","osmTags":{"key":"designation","value":"V-80","generator:method":"wind_turbine","generator:output:electricity":"2 MW","generator:source":"wind","generator:type":"horizontal_axis","height":"78","manufacturer":"Vestas","manufacturer:type":"V80-2.0 MW","name":"01WEA19625","power":"generator"},"osmUpdatedAt":"2026-06-01T14:12:16.844Z","type":3,"updatedAt":"2026-06-01T14:12:16.844Z","updatedBy":"openaip-system"},{"_id":"6889389e559527a774c8eadf","osmId":"2366049284","__v":0,"country":"DE","createdAt":"2025-07-29T21:09:50.966Z","createdBy":"openaip-system","elevation":{"value":26,"unit":0,"referenceDatum":1},"elevationGeoid":{"geoidHeight":41,"hae":67},"geometry":{"type":"Point","coordinates":[9.5112234,52.6899592]},"height":{"value":76,"unit":0,"referenceDatum":0},"name":"01WEA22686","osmImportJobId":"567e3138-4fb3-446c-959c-b920e748ecf6","osmTags":{"key":"addr:country","value":"DE","addr:postcode":"29690","generator:method":"wind_turbine","generator:output:electricity":"850 KW","generator:source":"wind","generator:type":"horizontal_axis","height":"76","manufacturer":"Vestas","manufacturer:type":"V52","name":"01WEA22686","offshore":"no","power":"generator","ref":"V-22686","rotor:diameter":"52"},"osmUpdatedAt":"2026-06-01T18:02:37.654Z","type":3,"updatedAt":"2026-06-01T18:02:37.654Z","updatedBy":"openaip-system"},{"_id":"68b505c06094274d6f34be2d","osmId":"2379103517","__v":0,"country":"DE","createdAt":"2025-09-01T02:32:32.599Z","createdBy":"openaip-system","elevation":{"value":77,"unit":0,"referenceDatum":1},"elevationGeoid":{"geoidHeight":44,"hae":121},"geometry":{"type":"Point","coordinates":[8.265839,52.2420401]},"name":"01WEA22836","osmImportJobId":"567e3138-4fb3-446c-959c-b920e748ecf6","osmTags":{"key":"designation","value":"V-80","generator:source":"wind","name":"01WEA22836","power":"generator"},"osmUpdatedAt":"2026-06-01T13:12:00.565Z","type":0,"updatedAt":"2026-06-01T13:12:00.565Z","updatedBy":"openaip-system"},{"_id":"68b516196094274d6f359383","osmId":"451701703","__v":0,"country":"DE","createdAt":"2025-09-01T03:42:17.234Z","createdBy":"openaip-system","elevation":{"value":63,"unit":0,"referenceDatum":1},"elevationGeoid":{"geoidHeight":41,"hae":104},"geometry":{"type":"Point","coordinates":[10.2391045,52.6414018]},"height":{"value":78,"unit":0,"referenceDatum":0},"name":"01WEA22853","osmImportJobId":"567e3138-4fb3-446c-959c-b920e748ecf6","osmTags":{"key":"designation","value":"V-80","generator:method":"wind_turbine","generator:output:electricity":"2 MW","generator:source":"wind","generator:type":"horizontal_axis","height":"78","manufacturer":"Vestas","manufacturer:type":"V80-2.0 MW","name":"01WEA22853","power":"generator"},"osmUpdatedAt":"2026-06-01T14:12:16.250Z","type":3,"updatedAt":"2026-06-01T14:12:16.250Z","updatedBy":"openaip-system"},{"_id":"6888dde56f79326825ce20f6","osmId":"339870886","__v":0,"country":"DE","createdAt":"2025-07-29T14:42:45.409Z","createdBy":"openaip-system","elevation":{"value":320,"unit":0,"referenceDatum":1},"elevationGeoid":{"geoidHeight":48,"hae":368},"geometry":{"type":"Point","coordinates":[9.9190216,49.5825149]},"name":"01WEA23366","osmImportJobId":"567e3138-4fb3-446c-959c-b920e748ecf6","osmTags":{"key":"designation","value":"V-82","generator:source":"wind","name":"01WEA23366","power":"generator"},"osmUpdatedAt":"2026-06-01T09:15:47.124Z","type":0,"updatedAt":"2026-06-01T09:15:47.124Z","updatedBy":"openaip-system"},{"_id":"68898dad6f79326825d86e58","osmId":"8532750576","__v":0,"country":"DE","createdAt":"2025-07-30T03:12:45.445Z","createdBy":"openaip-system","elevation":{"value":29,"unit":0,"referenceDatum":1},"elevationGeoid":{"geoidHeight":40,"hae":69},"geometry":{"type":"Point","coordinates":[9.380283,53.4315126]},"height":{"value":166,"unit":0,"referenceDatum":0},"name":"01WEA237395","osmImportJobId":"567e3138-4fb3-446c-959c-b920e748ecf6","osmTags":{"key":"description","value":"under construction","generator:method":"wind_turbine","generator:output:electricity":"5.6 MW","generator:source":"wind","generator:type":"horizontal_axis","height":"166","manufacturer":"Vestas","manufacturer:type":"V150-5.6 MW","name":"01WEA237395","power":"generator"},"osmUpdatedAt":"2026-06-01T16:19:16.022Z","type":3,"updatedAt":"2026-06-01T16:19:16.022Z","updatedBy":"openaip-system"},{"_id":"68b5a531a7e090cfc0b61a77","osmId":"2097986319","__v":0,"country":"DE","createdAt":"2025-09-01T13:52:49.088Z","createdBy":"openaip-system","elevation":{"value":14,"unit":0,"referenceDatum":1},"elevationGeoid":{"geoidHeight":40,"hae":54},"geometry":{"type":"Point","coordinates":[9.1333774,53.0760839]},"height":{"value":65,"unit":0,"referenceDatum":0},"name":"01WEA23819","osmImportJobId":"567e3138-4fb3-446c-959c-b920e748ecf6","osmTags":{"key":"generator:method","value":"wind_turbine","generator:output:electricity":"850 kW","generator:source":"wind","generator:type":"horizontal_axis","height":"65","manufacturer":"Vestas Wind Systems","manufacturer:type":"V52-850 kW","name":"01WEA23819","operator":"Dezentrale Energie Anlagen Beteiligungs- und Verwaltungsgesellschaft mbH","power":"generator","ref":"V-23819","rotor:diameter":"52"},"osmUpdatedAt":"2026-06-01T03:02:04.561Z","type":0,"updatedAt":"2026-06-01T03:02:04.561Z","updatedBy":"openaip-system"},{"_id":"697f2e20db1b871022ecc375","osmId":"299093361","__v":0,"country":"DE","createdAt":"2026-02-01T10:42:40.179Z","createdBy":"openaip-system","elevation":{"value":66,"unit":0,"referenceDatum":1},"elevationGeoid":{"geoidHeight":45,"hae":111},"geometry":{"type":"Point","coordinates":[7.7561345,51.6194115]},"name":"01WEA26340","osmImportJobId":"567e3138-4fb3-446c-959c-b920e748ecf6","osmTags":{"key":"designation","value":"V-90","generator:method":"wind_turbine","generator:source":"wind","name":"01WEA26340","power":"generator"},"osmUpdatedAt":"2026-06-01T07:46:55.027Z","type":3,"updatedAt":"2026-06-01T07:46:55.027Z","updatedBy":"openaip-system"},{"_id":"6888dde56f79326825ce20f1","osmId":"339870878","__v":0,"country":"DE","createdAt":"2025-07-29T14:42:45.330Z","createdBy":"openaip-system","elevation":{"value":326,"unit":0,"referenceDatum":1},"elevationGeoid":{"geoidHeight":48,"hae":374},"geometry":{"type":"Point","coordinates":[9.9125486,49.5874429]},"name":"01WEA31985","osmImportJobId":"567e3138-4fb3-446c-959c-b920e748ecf6","osmTags":{"key":"designation","value":"V-90","generator:source":"wind","name":"01WEA31985","power":"generator"},"osmUpdatedAt":"2026-06-01T09:15:47.728Z","type":0,"updatedAt":"2026-06-01T09:15:47.728Z","updatedBy":"openaip-system"},{"_id":"6889032fda4d0b16f904f76d","osmId":"1254176751","__v":0,"country":"DE","createdAt":"2025-07-29T17:21:51.731Z","createdBy":"openaip-system","elevation":{"value":40,"unit":0,"referenceDatum":1},"elevationGeoid":{"geoidHeight":42,"hae":82},"geometry":{"type":"Point","coordinates":[9.4917918,52.612436]},"name":"01WEA441770","osmImportJobId":"567e3138-4fb3-446c-959c-b920e748ecf6","osmTags":{"key":"designation","value":"E-40","generator:source":"wind","name":"01WEA441770","power":"generator","ref":"E-441770"},"osmUpdatedAt":"2026-06-01T00:19:13.259Z","type":0,"updatedAt":"2026-06-01T00:19:13.259Z","updatedBy":"openaip-system"},{"_id":"6888ac2a379c7f1f1acfb1ca","osmId":"673634948","__v":0,"country":"DE","createdAt":"2025-07-29T11:10:34.621Z","createdBy":"openaip-system","elevation":{"value":51,"unit":0,"referenceDatum":1},"elevationGeoid":{"geoidHeight":42,"hae":93},"geometry":{"type":"Point","coordinates":[9.4469959,52.5844208]},"name":"01WEA48137","osmImportJobId":"567e3138-4fb3-446c-959c-b920e748ecf6","osmTags":{"key":"designation","value":"E-48","generator:source":"wind","name":"01WEA48137","operator":"DeanBV","power":"generator"},"osmUpdatedAt":"2026-06-01T05:46:17.016Z","type":0,"updatedAt":"2026-06-01T05:46:17.016Z","updatedBy":"openaip-system"},{"_id":"688955dd8096bfd69125418b","osmId":"249218513","__v":0,"country":"DE","createdAt":"2025-07-29T23:14:37.839Z","createdBy":"openaip-system","elevation":{"value":25,"unit":0,"referenceDatum":1},"elevationGeoid":{"geoidHeight":44,"hae":69},"geometry":{"type":"Point","coordinates":[6.2323647,51.6901425]},"name":"01WEA60045","osmImportJobId":"567e3138-4fb3-446c-959c-b920e748ecf6","osmTags":{"key":"generator:source","value":"wind","name":"01WEA60045","power":"generator"},"osmUpdatedAt":"2026-06-01T13:42:43.084Z","type":0,"updatedAt":"2026-06-01T13:42:43.084Z","updatedBy":"openaip-system"},{"_id":"68b5161f6094274d6f35945b","osmId":"458982872","__v":0,"country":"DE","createdAt":"2025-09-01T03:42:23.491Z","createdBy":"openaip-system","elevation":{"value":63,"unit":0,"referenceDatum":1},"elevationGeoid":{"geoidHeight":41,"hae":104},"geometry":{"type":"Point","coordinates":[10.1974193,52.6798891]},"height":{"value":112,"unit":0,"referenceDatum":0},"name":"01WEA70145","osmImportJobId":"567e3138-4fb3-446c-959c-b920e748ecf6","osmTags":{"key":"designation","value":"S-77","generator:method":"wind_turbine","generator:output:electricity":"1.5 MW","generator:source":"wind","generator:type":"horizontal_axis","height":"111.5","manufacturer":"Nordex","manufacturer:type":"S77","name":"01WEA70145","power":"generator"},"osmUpdatedAt":"2026-06-01T14:12:18.248Z","type":3,"updatedAt":"2026-06-01T14:12:18.248Z","updatedBy":"openaip-system"},{"_id":"688966468096bfd69126dd1d","osmId":"301716883","__v":0,"country":"DE","createdAt":"2025-07-30T00:24:38.316Z","createdBy":"openaip-system","elevation":{"value":47,"unit":0,"referenceDatum":1},"elevationGeoid":{"geoidHeight":47,"hae":94},"geometry":{"type":"Point","coordinates":[6.9931375,50.7971277]},"name":"01WEA70512","osmImportJobId":"567e3138-4fb3-446c-959c-b920e748ecf6","osmTags":{"key":"description","value":"NH:96.5 m, RD:77 m","designation":"S-77","generator:output:electricity":"1500 kW","generator:source":"wind","manufacturer":"Südwind","manufacturer:type":"S77","name":"01WEA70512","old_name":"Windkraftanlage Wesseling-Urfeld 1","operator":"KHW GmbH Kirchstr. 10 50389 Wesseling","power":"generator","ref":"SW-70512"},"osmUpdatedAt":"2026-06-01T17:54:26.418Z","type":0,"updatedAt":"2026-06-01T17:54:26.418Z","updatedBy":"openaip-system"}]}