{"limit":30,"totalCount":336,"totalPages":12,"nextPage":2,"page":1,"items":[{"_id":"62aed2a0d9e5b540b6f7dbf4","name":"ALPHA","compulsory":false,"country":"DE","airports":["62614a39cb27f42509443f31"],"geometry":{"type":"Point","coordinates":[10.668966666666666,49.326566666666665]},"elevation":{"value":449,"unit":0,"referenceDatum":1},"createdAt":"2022-06-19T07:39:12.270Z","updatedAt":"2022-06-19T07:39:20.028Z","createdBy":"eBT9qSrxquPVguazo7MwJzzaf2p1","updatedBy":"eBT9qSrxquPVguazo7MwJzzaf2p1","elevationGeoid":{"geoidHeight":47.462914323360025,"hae":496.46291432336},"__v":0},{"_id":"629cca2bf4b4089a578e5037","name":"AUTOKINO","compulsory":false,"country":"DE","airports":["62614a9b5e9ded57104450d1"],"geometry":{"type":"Point","coordinates":[9.19,48.875]},"elevation":{"value":297,"unit":0,"referenceDatum":1},"createdAt":"2022-06-05T15:22:19.338Z","updatedAt":"2024-04-03T19:10:49.793Z","createdBy":"openaip-system","updatedBy":"eBT9qSrxquPVguazo7MwJzzaf2p1","elevationGeoid":{"geoidHeight":48.395640000000014,"hae":345.39564},"__v":1},{"_id":"629cc9c2f4b4089a578e4c8e","name":"BRAVO","compulsory":true,"country":"DE","airports":["62614a795e9ded571044438f"],"geometry":{"type":"Point","coordinates":[8.098333333333333,48.696666666666665]},"elevation":{"value":131,"unit":0,"referenceDatum":1},"createdAt":"2022-06-05T15:20:34.457Z","updatedAt":"2023-03-05T08:15:24.066Z","createdBy":"openaip-system","updatedBy":"OPONcQnzWGOLiJSceNaf8pvx1fA2","elevationGeoid":{"geoidHeight":48.55311600000002,"hae":179.55311600000002},"__v":2},{"_id":"62aed30cd9e5b540b6f7dc77","name":"BRAVO","compulsory":false,"country":"DE","airports":["62614a39cb27f42509443f31"],"geometry":{"type":"Point","coordinates":[10.681333333333333,49.34205]},"elevation":{"value":355,"unit":0,"referenceDatum":1},"createdAt":"2022-06-19T07:41:00.945Z","updatedAt":"2022-06-19T07:41:08.109Z","createdBy":"eBT9qSrxquPVguazo7MwJzzaf2p1","updatedBy":"eBT9qSrxquPVguazo7MwJzzaf2p1","elevationGeoid":{"geoidHeight":47.435704799999996,"hae":402.4357048},"__v":0},{"_id":"6304af5b258191b1c36d3d9f","name":"BRAVO","compulsory":true,"country":"DE","airports":["62614a9b5e9ded57104450a3"],"geometry":{"type":"Point","coordinates":[8.415,51.625]},"elevation":{"value":106,"unit":0,"referenceDatum":1},"createdAt":"2022-08-23T10:43:39.892Z","updatedAt":"2026-03-19T11:30:48.409Z","createdBy":"eBT9qSrxquPVguazo7MwJzzaf2p1","updatedBy":"eBT9qSrxquPVguazo7MwJzzaf2p1","elevationGeoid":{"geoidHeight":46,"hae":152},"__v":0},{"_id":"62aed398d9e5b540b6f7de1c","name":"BRIDGE","compulsory":false,"country":"DE","airports":["62614a39cb27f42509443f31"],"geometry":{"type":"Point","coordinates":[10.682566666666666,49.301633333333335]},"elevation":{"value":457,"unit":0,"referenceDatum":1},"createdAt":"2022-06-19T07:43:20.314Z","updatedAt":"2022-06-19T07:43:28.521Z","createdBy":"eBT9qSrxquPVguazo7MwJzzaf2p1","updatedBy":"eBT9qSrxquPVguazo7MwJzzaf2p1","elevationGeoid":{"geoidHeight":47.44158294096002,"hae":504.44158294096},"__v":0},{"_id":"62ba972a044a0cff330f345e","name":"BRIDGE","compulsory":true,"country":"DE","airports":["62614abecb27f4250944792b"],"geometry":{"type":"Point","coordinates":[8.322166666666666,49.977]},"elevation":{"value":83,"unit":0,"referenceDatum":1},"createdAt":"2022-06-28T05:52:42.998Z","updatedAt":"2022-06-28T05:52:50.117Z","createdBy":"eBT9qSrxquPVguazo7MwJzzaf2p1","updatedBy":"eBT9qSrxquPVguazo7MwJzzaf2p1","elevationGeoid":{"geoidHeight":48.24948151199999,"hae":131.249481512},"__v":0},{"_id":"62afff8dd9e5b540b6fbee2f","name":"BURGLENGENFELD","compulsory":true,"country":"DE","airports":["62614a725e9ded57104440bd"],"geometry":{"type":"Point","coordinates":[12.024119444444445,49.21751666666667]},"elevation":{"value":370,"unit":0,"referenceDatum":1},"createdAt":"2022-06-20T05:03:09.364Z","updatedAt":"2022-06-20T05:03:16.334Z","createdBy":"eBT9qSrxquPVguazo7MwJzzaf2p1","updatedBy":"eBT9qSrxquPVguazo7MwJzzaf2p1","elevationGeoid":{"geoidHeight":46.263680456619994,"hae":416.26368045662},"__v":0},{"_id":"629cc971f4b4089a578e49d5","name":"CHARLIE","compulsory":false,"country":"DE","airports":["62614a49cb27f42509444804"],"geometry":{"type":"Point","coordinates":[10.73,52.306666666666665]},"elevation":{"value":93,"unit":0,"referenceDatum":1},"createdAt":"2022-06-05T15:19:13.255Z","updatedAt":"2022-06-05T19:43:33.513Z","createdBy":"openaip-system","updatedBy":"OPONcQnzWGOLiJSceNaf8pvx1fA2","elevationGeoid":{"geoidHeight":43.11431040000002,"hae":136.11431040000002},"__v":0},{"_id":"629cc97ff4b4089a578e4a49","name":"CHARLIE","compulsory":true,"country":"DE","airports":["62614a55cb27f425094450bf"],"geometry":{"type":"Point","coordinates":[13.565,51.11666666666667]},"elevation":{"value":101,"unit":0,"referenceDatum":1},"createdAt":"2022-06-05T15:19:27.385Z","updatedAt":"2022-06-05T19:44:03.961Z","createdBy":"openaip-system","updatedBy":"OPONcQnzWGOLiJSceNaf8pvx1fA2","elevationGeoid":{"geoidHeight":43.42484400000001,"hae":144.424844},"__v":0},{"_id":"62aed408d9e5b540b6f7df38","name":"CHARLIE","compulsory":true,"country":"DE","airports":["62614a39cb27f42509443f31"],"geometry":{"type":"Point","coordinates":[10.744966666666667,49.35828333333333]},"elevation":{"value":408,"unit":0,"referenceDatum":1},"createdAt":"2022-06-19T07:45:12.596Z","updatedAt":"2022-06-19T07:45:20.615Z","createdBy":"eBT9qSrxquPVguazo7MwJzzaf2p1","updatedBy":"eBT9qSrxquPVguazo7MwJzzaf2p1","elevationGeoid":{"geoidHeight":47.3073732,"hae":455.30737320000003},"__v":0},{"_id":"62b000dbd9e5b540b6fbefb7","name":"COD","compulsory":true,"country":"DE","airports":["62614a725e9ded57104440bd"],"geometry":{"type":"Point","coordinates":[11.9339,49.21382777777778]},"elevation":{"value":450,"unit":0,"referenceDatum":1},"createdAt":"2022-06-20T05:08:43.468Z","updatedAt":"2022-06-20T05:08:50.654Z","createdBy":"eBT9qSrxquPVguazo7MwJzzaf2p1","updatedBy":"eBT9qSrxquPVguazo7MwJzzaf2p1","elevationGeoid":{"geoidHeight":46.297778165520015,"hae":496.29777816552},"__v":0},{"_id":"629c8e2fc4c904b78bbe89db","name":"D","compulsory":true,"country":"DE","airports":["62614a5d5e9ded57104438c4"],"geometry":{"type":"Point","coordinates":[8.60138888888889,49.87027777777778]},"elevation":{"value":101,"unit":0,"referenceDatum":1},"createdAt":"2022-06-05T11:06:23.102Z","updatedAt":"2023-12-15T07:23:55.300Z","createdBy":"eBT9qSrxquPVguazo7MwJzzaf2p1","updatedBy":"eBT9qSrxquPVguazo7MwJzzaf2p1","elevationGeoid":{"geoidHeight":47.97727033333334,"hae":148.97727033333334},"__v":0},{"_id":"629cc9a9f4b4089a578e4bb5","name":"DELTA","compulsory":true,"country":"DE","airports":["62614a6a5e9ded5710443de7"],"geometry":{"type":"Point","coordinates":[10.16,53.56]},"elevation":{"value":19,"unit":0,"referenceDatum":1},"createdAt":"2022-06-05T15:20:09.222Z","updatedAt":"2022-06-05T19:45:46.464Z","createdBy":"openaip-system","updatedBy":"OPONcQnzWGOLiJSceNaf8pvx1fA2","elevationGeoid":{"geoidHeight":40.1933616,"hae":59.1933616},"__v":0},{"_id":"629cca05f4b4089a578e4edd","name":"DELTA","compulsory":true,"country":"DE","airports":["62614a8ecb27f42509446782"],"geometry":{"type":"Point","coordinates":[7.54,52.18]},"elevation":{"value":35,"unit":0,"referenceDatum":1},"createdAt":"2022-06-05T15:21:41.524Z","updatedAt":"2022-06-05T19:49:23.755Z","createdBy":"openaip-system","updatedBy":"OPONcQnzWGOLiJSceNaf8pvx1fA2","elevationGeoid":{"geoidHeight":43.98510239999999,"hae":78.98510239999999},"__v":0},{"_id":"629c8da1c4c904b78bbe8917","name":"E","compulsory":true,"country":"DE","airports":["62614a5d5e9ded57104438c4"],"geometry":{"type":"Point","coordinates":[8.836666666666666,49.95166666666667]},"elevation":{"value":141,"unit":0,"referenceDatum":1},"createdAt":"2022-06-05T11:04:01.756Z","updatedAt":"2022-06-05T11:04:10.183Z","createdBy":"eBT9qSrxquPVguazo7MwJzzaf2p1","updatedBy":"eBT9qSrxquPVguazo7MwJzzaf2p1","elevationGeoid":{"geoidHeight":48.130900800000006,"hae":189.1309008},"__v":0},{"_id":"629cc97bf4b4089a578e4a2c","name":"ECHO","compulsory":true,"country":"DE","airports":["62614a55cb27f4250944508b"],"geometry":{"type":"Point","coordinates":[7.711666666666667,51.47666666666667]},"elevation":{"value":129,"unit":0,"referenceDatum":1},"createdAt":"2022-06-05T15:19:23.935Z","updatedAt":"2022-06-05T19:43:56.308Z","createdBy":"openaip-system","updatedBy":"OPONcQnzWGOLiJSceNaf8pvx1fA2","elevationGeoid":{"geoidHeight":46.36390079999998,"hae":175.36390079999998},"__v":0},{"_id":"629cc981f4b4089a578e4a5b","name":"ECHO","compulsory":true,"country":"DE","airports":["62614a55cb27f425094450bf"],"geometry":{"type":"Point","coordinates":[13.971666666666666,51.15833333333333]},"elevation":{"value":275,"unit":0,"referenceDatum":1},"createdAt":"2022-06-05T15:19:29.532Z","updatedAt":"2022-06-05T19:44:08.973Z","createdBy":"openaip-system","updatedBy":"OPONcQnzWGOLiJSceNaf8pvx1fA2","elevationGeoid":{"geoidHeight":43.42692600000001,"hae":318.426926},"__v":0},{"_id":"629cc983f4b4089a578e4a6f","name":"ECHO","compulsory":true,"country":"DE","airports":["62614a56cb27f4250944510b"],"geometry":{"type":"Point","coordinates":[6.941666666666666,51.19166666666667]},"elevation":{"value":61,"unit":0,"referenceDatum":1},"createdAt":"2022-06-05T15:19:31.767Z","updatedAt":"2022-06-05T19:44:14.113Z","createdBy":"openaip-system","updatedBy":"OPONcQnzWGOLiJSceNaf8pvx1fA2","elevationGeoid":{"geoidHeight":46.42998,"hae":107.42998},"__v":0},{"_id":"629cc98bf4b4089a578e4ab2","name":"ECHO","compulsory":true,"country":"DE","airports":["62614a5d5e9ded57104438f1"],"geometry":{"type":"Point","coordinates":[7.408333333333333,49.96]},"elevation":{"value":419,"unit":0,"referenceDatum":1},"createdAt":"2022-06-05T15:19:39.726Z","updatedAt":"2022-06-05T19:44:31.891Z","createdBy":"openaip-system","updatedBy":"OPONcQnzWGOLiJSceNaf8pvx1fA2","elevationGeoid":{"geoidHeight":48.84843599999999,"hae":467.848436},"__v":0},{"_id":"629cc9b5f4b4089a578e4c1c","name":"ECHO","compulsory":true,"country":"DE","airports":["62614a6fcb27f42509445b25"],"geometry":{"type":"Point","coordinates":[14.23,53.76]},"elevation":{"value":-1,"unit":0,"referenceDatum":1},"createdAt":"2022-06-05T15:20:21.361Z","updatedAt":"2022-06-05T19:46:14.848Z","createdBy":"openaip-system","updatedBy":"OPONcQnzWGOLiJSceNaf8pvx1fA2","elevationGeoid":{"geoidHeight":35.93530079999999,"hae":34.93530079999999},"__v":0},{"_id":"629cc9b7f4b4089a578e4c30","name":"ECHO","compulsory":true,"country":"DE","airports":["62614a72cb27f42509445c42"],"geometry":{"type":"Point","coordinates":[11.94,50.375]},"elevation":{"value":519,"unit":0,"referenceDatum":1},"createdAt":"2022-06-05T15:20:23.720Z","updatedAt":"2022-06-05T19:46:19.930Z","createdBy":"openaip-system","updatedBy":"OPONcQnzWGOLiJSceNaf8pvx1fA2","elevationGeoid":{"geoidHeight":47.24982,"hae":566.24982},"__v":0},{"_id":"629cc9c1f4b4089a578e4c85","name":"ECHO","compulsory":true,"country":"DE","airports":["62614a795e9ded571044438f"],"geometry":{"type":"Point","coordinates":[8.166666666666666,48.748333333333335]},"elevation":{"value":135,"unit":0,"referenceDatum":1},"createdAt":"2022-06-05T15:20:33.439Z","updatedAt":"2023-03-05T08:43:02.368Z","createdBy":"openaip-system","updatedBy":"OPONcQnzWGOLiJSceNaf8pvx1fA2","elevationGeoid":{"geoidHeight":48.570840000000004,"hae":183.57084},"__v":2},{"_id":"629cc9dbf4b4089a578e4d65","name":"ECHO","compulsory":true,"country":"DE","airports":["62614a7f5e9ded571044464a"],"geometry":{"type":"Point","coordinates":[7.916666666666667,48.335]},"elevation":{"value":187,"unit":0,"referenceDatum":1},"createdAt":"2022-06-05T15:20:59.352Z","updatedAt":"2022-06-05T19:47:47.181Z","createdBy":"openaip-system","updatedBy":"OPONcQnzWGOLiJSceNaf8pvx1fA2","elevationGeoid":{"geoidHeight":49.16184000000001,"hae":236.16184},"__v":0},{"_id":"629cc9ecf4b4089a578e4e06","name":"ECHO","compulsory":true,"country":"DE","airports":["62614a87cb27f42509446445"],"geometry":{"type":"Point","coordinates":[8.621666666666666,49.538333333333334]},"elevation":{"value":98,"unit":0,"referenceDatum":1},"createdAt":"2022-06-05T15:21:16.333Z","updatedAt":"2022-06-05T19:48:25.985Z","createdBy":"openaip-system","updatedBy":"OPONcQnzWGOLiJSceNaf8pvx1fA2","elevationGeoid":{"geoidHeight":47.7581208,"hae":145.7581208},"__v":0},{"_id":"629cca04f4b4089a578e4ed4","name":"ECHO","compulsory":true,"country":"DE","airports":["62614a8ecb27f42509446782"],"geometry":{"type":"Point","coordinates":[7.855,52.108333333333334]},"elevation":{"value":57,"unit":0,"referenceDatum":1},"createdAt":"2022-06-05T15:21:40.492Z","updatedAt":"2022-06-05T19:49:21.271Z","createdBy":"openaip-system","updatedBy":"OPONcQnzWGOLiJSceNaf8pvx1fA2","elevationGeoid":{"geoidHeight":44.219753999999995,"hae":101.219754},"__v":0},{"_id":"629cca0bf4b4089a578e4f0e","name":"ECHO","compulsory":true,"country":"DE","airports":["62614a93cb27f4250944696a"],"geometry":{"type":"Point","coordinates":[10.086375,49.455666666666666]},"elevation":{"value":408,"unit":0,"referenceDatum":1},"createdAt":"2022-06-05T15:21:47.320Z","updatedAt":"2022-06-28T05:11:07.184Z","createdBy":"openaip-system","updatedBy":"eBT9qSrxquPVguazo7MwJzzaf2p1","elevationGeoid":{"geoidHeight":48.437875476000016,"hae":456.43787547600004},"__v":0},{"_id":"629cca13f4b4089a578e4f4f","name":"ECHO","compulsory":true,"country":"DE","airports":["62614a945e9ded5710444d79"],"geometry":{"type":"Point","coordinates":[8.848333333333333,53.82555555555555]},"elevation":{"value":3,"unit":0,"referenceDatum":1},"createdAt":"2022-06-05T15:21:55.148Z","updatedAt":"2022-06-10T08:19:52.439Z","createdBy":"openaip-system","updatedBy":"eBT9qSrxquPVguazo7MwJzzaf2p1","elevationGeoid":{"geoidHeight":39.60639839999999,"hae":42.60639839999999},"__v":0},{"_id":"629cca1af4b4089a578e4f9a","name":"ECHO","compulsory":true,"country":"DE","airports":["62614a945e9ded5710444db2"],"geometry":{"type":"Point","coordinates":[7.278333333333333,52.5]},"elevation":{"value":34,"unit":0,"referenceDatum":1},"createdAt":"2022-06-05T15:22:02.599Z","updatedAt":"2022-06-05T19:50:11.756Z","createdBy":"openaip-system","updatedBy":"OPONcQnzWGOLiJSceNaf8pvx1fA2","elevationGeoid":{"geoidHeight":43.16040000000001,"hae":77.16040000000001},"__v":0},{"_id":"629cca24f4b4089a578e4fff","name":"ECHO","compulsory":true,"country":"DE","airports":["62614a9b5e9ded57104450a3"],"geometry":{"type":"Point","coordinates":[8.618333333333334,51.69833333333333]},"elevation":{"value":102,"unit":0,"referenceDatum":1},"createdAt":"2022-06-05T15:22:12.598Z","updatedAt":"2022-06-05T19:50:34.800Z","createdBy":"openaip-system","updatedBy":"OPONcQnzWGOLiJSceNaf8pvx1fA2","elevationGeoid":{"geoidHeight":45.76037999999997,"hae":147.76037999999997},"__v":0}]}